,Document_Number,Dominant_Topic,Keywords,Title,Date,DOI,URL
173,173,32.0,datum; tool; analysis; file; software; provide; user; package; dataset; resource,virus pathogen database and analysis resource (vipr): a comprehensive bioinformatics database and analysis resource for the coronavirus research community,2012-11,10.3390/v4113209,
375,375,32.0,datum; tool; analysis; file; software; provide; user; package; dataset; resource,"A Web-based, Mobile Responsive Application to Screen Healthcare Workers for COVID Symptoms: Descriptive Study",2020.04.17,10.1101/2020.04.17.20069211,https://www.medrxiv.org/content/10.1101/2020.04.17.20069211v1.full.pdf
401,401,32.0,datum; tool; analysis; file; software; provide; user; package; dataset; resource,Challenges and recommendations to improve the installability and archival stability of omics computational tools,2018-10-25,10.1101/452532,https://www.biorxiv.org/content/10.1101/452532v2.full.pdf
445,445,32.0,datum; tool; analysis; file; software; provide; user; package; dataset; resource,Challenges and recommendations to improve the installability and archival stability of omics computational tools,2018-10-25,10.1101/452532,https://www.biorxiv.org/content/10.1101/452532v2.full.pdf
494,494,32.0,datum; tool; analysis; file; software; provide; user; package; dataset; resource,Moving beyond P values: Everyday data analysis with estimation plots,2018-07-26,10.1101/377978,https://www.biorxiv.org/content/10.1101/377978v2.full.pdf
515,515,32.0,datum; tool; analysis; file; software; provide; user; package; dataset; resource,CLIJ: GPU-accelerated image processing for everyone,2019-06-09,10.1101/660704,https://www.biorxiv.org/content/10.1101/660704v2.full.pdf
520,520,32.0,datum; tool; analysis; file; software; provide; user; package; dataset; resource,Scaling computational genomics to millions of individuals with GPUs,2018-11-14,10.1101/470138,https://www.biorxiv.org/content/10.1101/470138v3.full.pdf
660,660,32.0,datum; tool; analysis; file; software; provide; user; package; dataset; resource,nf-core: Community curated bioinformatics pipelines,2019-04-16,10.1101/610741,https://www.biorxiv.org/content/10.1101/610741v3.full.pdf
705,705,32.0,datum; tool; analysis; file; software; provide; user; package; dataset; resource,"FAIRsharing, a cohesive community approach to the growth in standards, repositories and policies",2018-01-17,10.1101/245183,https://www.biorxiv.org/content/10.1101/245183v2.full.pdf
725,725,32.0,datum; tool; analysis; file; software; provide; user; package; dataset; resource,"An introduction to MPEG-G, the new ISO standard for genomic information representation",2018-09-27,10.1101/426353,https://www.biorxiv.org/content/10.1101/426353v2.full.pdf
739,739,32.0,datum; tool; analysis; file; software; provide; user; package; dataset; resource,chromoMap: An R package for Interactive Visualization and Annotation of Chromosomes,2019-04-11,10.1101/605600,https://www.biorxiv.org/content/10.1101/605600v2.full.pdf
844,844,32.0,datum; tool; analysis; file; software; provide; user; package; dataset; resource,Logomaker: beautiful sequence logos in Python,2019-05-13,10.1101/635029,https://www.biorxiv.org/content/10.1101/635029v1.full.pdf
914,914,32.0,datum; tool; analysis; file; software; provide; user; package; dataset; resource,ARMOR: an Automated Reproducible MOdular workflow for preprocessing and differential analysis of RNA-seq data,2019-03-12,10.1101/575951,https://www.biorxiv.org/content/10.1101/575951v1.full.pdf
923,923,32.0,datum; tool; analysis; file; software; provide; user; package; dataset; resource,"Metagenomics workflow for hybrid assembly, differential coverage binning, transcriptomics and pathway analysis (MUFFIN)",2020-02-08,10.1101/2020.02.08.939843,https://www.biorxiv.org/content/10.1101/2020.02.08.939843v1.full.pdf
926,926,32.0,datum; tool; analysis; file; software; provide; user; package; dataset; resource,The Personal Genome Project-UK: an open access resource of human multi-omics data,2019-03-04,10.1101/566711,https://www.biorxiv.org/content/10.1101/566711v1.full.pdf
952,952,32.0,datum; tool; analysis; file; software; provide; user; package; dataset; resource,Community-driven data analysis training for biology,2017-11-29,10.1101/225680,https://www.biorxiv.org/content/10.1101/225680v2.full.pdf
988,988,32.0,datum; tool; analysis; file; software; provide; user; package; dataset; resource,Selene: a PyTorch-based deep learning library for biological sequence-level data,2018-10-10,10.1101/438291,https://www.biorxiv.org/content/10.1101/438291v3.full.pdf
1067,1067,32.0,datum; tool; analysis; file; software; provide; user; package; dataset; resource,vLUME: 3D Virtual Reality for Single-molecule Localization Microscopy,2020-01-21,10.1101/2020.01.20.912733,https://www.biorxiv.org/content/10.1101/2020.01.20.912733v1.full.pdf
1088,1088,32.0,datum; tool; analysis; file; software; provide; user; package; dataset; resource,"BactMAP: an R package for integrating, analyzing and visualizing bacterial microscopy data",2019-08-07,10.1101/728782,https://www.biorxiv.org/content/10.1101/728782v1.full.pdf
1106,1106,32.0,datum; tool; analysis; file; software; provide; user; package; dataset; resource,PlotsOfData - a web app for visualizing data together with its summaries,2018-09-26,10.1101/426767,https://www.biorxiv.org/content/10.1101/426767v3.full.pdf
1204,1204,32.0,datum; tool; analysis; file; software; provide; user; package; dataset; resource,SparK: A Publication-quality NGS Visualization Tool,2019-11-16,10.1101/845529,https://www.biorxiv.org/content/10.1101/845529v1.full.pdf
1290,1290,32.0,datum; tool; analysis; file; software; provide; user; package; dataset; resource,Cooler: scalable storage for Hi-C data and other genomically-labeled arrays,2019-02-22,10.1101/557660,https://www.biorxiv.org/content/10.1101/557660v1.full.pdf
1318,1318,32.0,datum; tool; analysis; file; software; provide; user; package; dataset; resource,RNASeqR: an R package for automated two-group RNA-Seq analysis workflow,2019-05-27,10.1101/641324,https://www.biorxiv.org/content/10.1101/641324v1.full.pdf
1402,1402,32.0,datum; tool; analysis; file; software; provide; user; package; dataset; resource,Comparison of visualisation tools for single-cell RNAseq data,2020-01-25,10.1101/2020.01.24.918342,https://www.biorxiv.org/content/10.1101/2020.01.24.918342v3.full.pdf
1418,1418,32.0,datum; tool; analysis; file; software; provide; user; package; dataset; resource,ETDB-Caltech: a blockchain-based distributed public database for electron tomography,2018-10-25,10.1101/453662,https://www.biorxiv.org/content/10.1101/453662v1.full.pdf
1461,1461,32.0,datum; tool; analysis; file; software; provide; user; package; dataset; resource,bioSyntax: Syntax Highlighting For Computational Biology,2017-12-20,10.1101/235820,https://www.biorxiv.org/content/10.1101/235820v1.full.pdf
1510,1510,32.0,datum; tool; analysis; file; software; provide; user; package; dataset; resource,Millefy: visualizing cell-to-cell heterogeneity in read coverage of single-cell RNA sequencing datasets,2019-02-01,10.1101/537936,https://www.biorxiv.org/content/10.1101/537936v2.full.pdf
1518,1518,32.0,datum; tool; analysis; file; software; provide; user; package; dataset; resource,Tximeta: reference sequence checksums for provenance identification in RNA-seq,2019-09-25,10.1101/777888,https://www.biorxiv.org/content/10.1101/777888v1.full.pdf
1625,1625,32.0,datum; tool; analysis; file; software; provide; user; package; dataset; resource,Algorithmic Learning for Auto-deconvolution of GC-MS Data to Enable Molecular Networking within GNPS.,2020-01-14,10.1101/2020.01.13.905091,https://www.biorxiv.org/content/10.1101/2020.01.13.905091v1.full.pdf
