,Document_Number,Dominant_Topic,Keywords,Title,Date,DOI,URL
590,590,40.0,fly; light; behavior; female; male; egg; individual; ant; animal; receptor,Robust manipulation of the behavior of Drosophila melanogaster by a fungal pathogen in the laboratory,2017-12-10,10.1101/232140,https://www.biorxiv.org/content/10.1101/232140v3.full.pdf
614,614,40.0,fly; light; behavior; female; male; egg; individual; ant; animal; receptor,C. elegans discriminate colors without eyes or opsins,2016-12-07,10.1101/092072,https://www.biorxiv.org/content/10.1101/092072v2.full.pdf
778,778,40.0,fly; light; behavior; female; male; egg; individual; ant; animal; receptor,orco mutagenesis causes loss of antennal lobe glomeruli and impaired social behavior in ants,2017-02-28,10.1101/112532,https://www.biorxiv.org/content/10.1101/112532v1.full.pdf
805,805,40.0,fly; light; behavior; female; male; egg; individual; ant; animal; receptor,Perception of naturally dead conspecifics impairs health and longevity through serotonin signaling in Drosophila,2019-01-09,10.1101/515312,https://www.biorxiv.org/content/10.1101/515312v1.full.pdf
884,884,40.0,fly; light; behavior; female; male; egg; individual; ant; animal; receptor,General visual and contingent thermal cues interact to elicit attraction in female Aedes aegypti mosquitoes,2019-01-03,10.1101/510594,https://www.biorxiv.org/content/10.1101/510594v1.full.pdf
1027,1027,40.0,fly; light; behavior; female; male; egg; individual; ant; animal; receptor,Land use impacts poison frog chemical defenses through changes in leaf litter ant communities,2019-08-30,10.1101/745976,https://www.biorxiv.org/content/10.1101/745976v2.full.pdf
1108,1108,40.0,fly; light; behavior; female; male; egg; individual; ant; animal; receptor,"The effect of environmental enrichment on behavioral variability depends on genotype, behavior, and type of enrichment",2019-02-21,10.1101/557181,https://www.biorxiv.org/content/10.1101/557181v1.full.pdf
1203,1203,40.0,fly; light; behavior; female; male; egg; individual; ant; animal; receptor,The neural basis of tadpole transport in poison frogs,2019-05-08,10.1101/630681,https://www.biorxiv.org/content/10.1101/630681v3.full.pdf
1265,1265,40.0,fly; light; behavior; female; male; egg; individual; ant; animal; receptor,Widespread Receptor Driven Modulation in Peripheral Olfactory Coding,2019-09-08,10.1101/760330,https://www.biorxiv.org/content/10.1101/760330v1.full.pdf
1271,1271,40.0,fly; light; behavior; female; male; egg; individual; ant; animal; receptor,Vision using multiple distinct rod opsins in deep-sea fishes,2018-09-23,10.1101/424895,https://www.biorxiv.org/content/10.1101/424895v1.full.pdf
1307,1307,40.0,fly; light; behavior; female; male; egg; individual; ant; animal; receptor,Optogenetic dissection of descending behavioral control in Drosophila,2017-12-09,10.1101/230128,https://www.biorxiv.org/content/10.1101/230128v2.full.pdf
1354,1354,40.0,fly; light; behavior; female; male; egg; individual; ant; animal; receptor,A neuronal signature for monogamous reunion,2019-06-19,10.1101/675959,https://www.biorxiv.org/content/10.1101/675959v3.full.pdf
1542,1542,40.0,fly; light; behavior; female; male; egg; individual; ant; animal; receptor,"On the adaptive behavior of head-fixed flies navigating in two-dimensional, visual virtual reality",2018-11-04,10.1101/462028,https://www.biorxiv.org/content/10.1101/462028v1.full.pdf
1590,1590,40.0,fly; light; behavior; female; male; egg; individual; ant; animal; receptor,A neurodevelopmental origin of behavioral individuality,2019-02-05,10.1101/540880,https://www.biorxiv.org/content/10.1101/540880v1.full.pdf
1663,1663,40.0,fly; light; behavior; female; male; egg; individual; ant; animal; receptor,Hormonal and neural correlates of care in active versus observing poison frog parents,2019-09-11,10.1101/765503,https://www.biorxiv.org/content/10.1101/765503v2.full.pdf
