,Document_Number,Dominant_Topic,Keywords,Title,Date,DOI,URL
23,23,28.0,tissue; brain; mouse; human; organ; image; body; cell; metastasis; show,high expression of ace2 receptor of 2019-ncov on the epithelial cells of oral mucosa,2020-02,10.1038/s41368-020-0074-x,
383,383,28.0,tissue; brain; mouse; human; organ; image; body; cell; metastasis; show,7 Tesla MRI of the ex vivo human brain at 100 micron resolution,2019-05-31,10.1101/649822,https://www.biorxiv.org/content/10.1101/649822v2.full.pdf
389,389,28.0,tissue; brain; mouse; human; organ; image; body; cell; metastasis; show,Deep learning reveals cancer metastasis and therapeutic antibody targeting in whole body,2019-02-05,10.1101/541862,https://www.biorxiv.org/content/10.1101/541862v1.full.pdf
405,405,28.0,tissue; brain; mouse; human; organ; image; body; cell; metastasis; show,Cellular and Molecular Probing of Intact Transparent Human Organs,2019-05-21,10.1101/643908,https://www.biorxiv.org/content/10.1101/643908v1.full.pdf
407,407,28.0,tissue; brain; mouse; human; organ; image; body; cell; metastasis; show,"Panoptic vDISCO imaging reveals neuronal connectivity, remote trauma effects and meningeal vessels in intact transparent mice",2018-07-23,10.1101/374785,https://www.biorxiv.org/content/10.1101/374785v1.full.pdf
427,427,28.0,tissue; brain; mouse; human; organ; image; body; cell; metastasis; show,7 Tesla MRI of the ex vivo human brain at 100 micron resolution,2019-05-31,10.1101/649822,https://www.biorxiv.org/content/10.1101/649822v2.full.pdf
433,433,28.0,tissue; brain; mouse; human; organ; image; body; cell; metastasis; show,Deep learning reveals cancer metastasis and therapeutic antibody targeting in whole body,2019-02-05,10.1101/541862,https://www.biorxiv.org/content/10.1101/541862v1.full.pdf
449,449,28.0,tissue; brain; mouse; human; organ; image; body; cell; metastasis; show,Cellular and Molecular Probing of Intact Transparent Human Organs,2019-05-21,10.1101/643908,https://www.biorxiv.org/content/10.1101/643908v1.full.pdf
451,451,28.0,tissue; brain; mouse; human; organ; image; body; cell; metastasis; show,"Panoptic vDISCO imaging reveals neuronal connectivity, remote trauma effects and meningeal vessels in intact transparent mice",2018-07-23,10.1101/374785,https://www.biorxiv.org/content/10.1101/374785v1.full.pdf
479,479,28.0,tissue; brain; mouse; human; organ; image; body; cell; metastasis; show,Automated analysis of whole brain vasculature using machine learning,2019-04-18,10.1101/613257,https://www.biorxiv.org/content/10.1101/613257v1.full.pdf
652,652,28.0,tissue; brain; mouse; human; organ; image; body; cell; metastasis; show,Ultrasound Imaging of Gene Expression in Mammalian Cells,2019-03-18,10.1101/580647,https://www.biorxiv.org/content/10.1101/580647v1.full.pdf
674,674,28.0,tissue; brain; mouse; human; organ; image; body; cell; metastasis; show,Optical clearing of living brains with MAGICAL to extend in vivo imaging,2019-01-09,10.1101/507426,https://www.biorxiv.org/content/10.1101/507426v1.full.pdf
1267,1267,28.0,tissue; brain; mouse; human; organ; image; body; cell; metastasis; show,The mesoSPIM initiative: open-source light-sheet mesoscopes for imaging in cleared tissue,2019-03-18,10.1101/577122,https://www.biorxiv.org/content/10.1101/577122v1.full.pdf
1268,1268,28.0,tissue; brain; mouse; human; organ; image; body; cell; metastasis; show,Multi-immersion open-top light-sheet microscope for high-throughput imaging of cleared tissues,2019-02-13,10.1101/548107,https://www.biorxiv.org/content/10.1101/548107v1.full.pdf
1525,1525,28.0,tissue; brain; mouse; human; organ; image; body; cell; metastasis; show,The network structure of cancer ecosystems,2017-12-29,10.1101/240796,https://www.biorxiv.org/content/10.1101/240796v1.full.pdf
