,Document_Number,Dominant_Topic,Keywords,Title,Date,DOI,URL
6,6,14.0,protein; degc; cell; sample; incubate; add; follow; minute; buffer; perform,development and characterization of a continuous cell line (el) from the liver of european eel ,2019-12,10.1002/cbin.11276,
154,154,14.0,protein; degc; cell; sample; incubate; add; follow; minute; buffer; perform,cell membrane-interrupting antimicrobial peptides from ,2019-12,10.3390/biom10010030,
423,423,14.0,protein; degc; cell; sample; incubate; add; follow; minute; buffer; perform,"A simple, cost-effective, and robust method for rRNA depletion in RNA-sequencing studies",2020-01-07,10.1101/2020.01.06.896837,https://www.biorxiv.org/content/10.1101/2020.01.06.896837v1.full.pdf
467,467,14.0,protein; degc; cell; sample; incubate; add; follow; minute; buffer; perform,"A simple, cost-effective, and robust method for rRNA depletion in RNA-sequencing studies",2020-01-07,10.1101/2020.01.06.896837,https://www.biorxiv.org/content/10.1101/2020.01.06.896837v1.full.pdf
506,506,14.0,protein; degc; cell; sample; incubate; add; follow; minute; buffer; perform,CUT&Tag for efficient epigenomic profiling of small samples and single cells,2019-03-06,10.1101/568915,https://www.biorxiv.org/content/10.1101/568915v1.full.pdf
508,508,14.0,protein; degc; cell; sample; incubate; add; follow; minute; buffer; perform,"A rationally designed and highly versatile epitope tag for nanobody-based purification, detection and manipulation of proteins",2019-05-17,10.1101/640771,https://www.biorxiv.org/content/10.1101/640771v2.full.pdf
529,529,14.0,protein; degc; cell; sample; incubate; add; follow; minute; buffer; perform,Single-cell mass-spectrometry quantifies the emergence of macrophage heterogeneity,2019-06-09,10.1101/665307,https://www.biorxiv.org/content/10.1101/665307v3.full.pdf
551,551,14.0,protein; degc; cell; sample; incubate; add; follow; minute; buffer; perform,Mammalian Y RNAs are modified at discrete guanosine residues with N-glycans,2019-09-30,10.1101/787614,https://www.biorxiv.org/content/10.1101/787614v1.full.pdf
815,815,14.0,protein; degc; cell; sample; incubate; add; follow; minute; buffer; perform,High molecular weight DNA isolation method from diverse plant species for use with Oxford Nanopore sequencing,2019-09-26,10.1101/783159,https://www.biorxiv.org/content/10.1101/783159v2.full.pdf
983,983,14.0,protein; degc; cell; sample; incubate; add; follow; minute; buffer; perform,Proximity RNA labeling by APEX-Seq Reveals the Organization of Translation Initiation Complexes and Repressive RNA Granules,2018-10-25,10.1101/454066,https://www.biorxiv.org/content/10.1101/454066v1.full.pdf
1049,1049,14.0,protein; degc; cell; sample; incubate; add; follow; minute; buffer; perform,Direct synthesis of EM-visible gold nanoparticles on genetically encoded tags for single-molecule visualization in cells,2019-01-17,10.1101/520999,https://www.biorxiv.org/content/10.1101/520999v1.full.pdf
1116,1116,14.0,protein; degc; cell; sample; incubate; add; follow; minute; buffer; perform,Mass-spectrometry of single mammalian cells quantifies proteome heterogeneity during cell differentiation,2017-01-24,10.1101/102681,https://www.biorxiv.org/content/10.1101/102681v4.full.pdf
1257,1257,14.0,protein; degc; cell; sample; incubate; add; follow; minute; buffer; perform,Direct evidence for transport of RNA from the mouse brain to the germline and offspring,2019-06-28,10.1101/686634,https://www.biorxiv.org/content/10.1101/686634v2.full.pdf
1368,1368,14.0,protein; degc; cell; sample; incubate; add; follow; minute; buffer; perform,Determining cellular CTCF and cohesin abundances to constrain 3D genome models,2018-07-17,10.1101/370650,https://www.biorxiv.org/content/10.1101/370650v2.full.pdf
1376,1376,14.0,protein; degc; cell; sample; incubate; add; follow; minute; buffer; perform,CUT&RUN: Targeted in situ genome-wide profiling with high efficiency for low cell numbers,2017-09-24,10.1101/193219,https://www.biorxiv.org/content/10.1101/193219v1.full.pdf
1408,1408,14.0,protein; degc; cell; sample; incubate; add; follow; minute; buffer; perform,Proximity labeling of protein complexes and cell type-specific organellar proteomes in Arabidopsis enabled by TurboID,2019-05-13,10.1101/629675,https://www.biorxiv.org/content/10.1101/629675v1.full.pdf
