,Document_Number,Dominant_Topic,Keywords,Title,Date,DOI,URL
513,513,58.0,activity; movement; animal; behavior; neuron; time; behavioral; day; field; trial,ezTrack: An open-source video analysis pipeline for the investigation of animal behavior,2019-03-30,10.1101/592592,https://www.biorxiv.org/content/10.1101/592592v3.full.pdf
567,567,58.0,activity; movement; animal; behavior; neuron; time; behavioral; day; field; trial,A modular neural network model of grasp movement generation,2019-08-24,10.1101/742189,https://www.biorxiv.org/content/10.1101/742189v2.full.pdf
609,609,58.0,activity; movement; animal; behavior; neuron; time; behavioral; day; field; trial,"MARGO (Massively Automated Real-time GUI for Object-tracking), a platform for high-throughput ethology",2019-03-30,10.1101/593046,https://www.biorxiv.org/content/10.1101/593046v1.full.pdf
666,666,58.0,activity; movement; animal; behavior; neuron; time; behavioral; day; field; trial,On-demand spatiotemporal programming of collective cell migration via bioelectric stimulation,2019-12-23,10.1101/2019.12.20.884510,https://www.biorxiv.org/content/10.1101/2019.12.20.884510v1.full.pdf
727,727,58.0,activity; movement; animal; behavior; neuron; time; behavioral; day; field; trial,Characterization of proprioceptive system dynamics in behaving Drosophila larvae using high-speed volumetric microscopy,2018-11-09,10.1101/467274,https://www.biorxiv.org/content/10.1101/467274v1.full.pdf
916,916,58.0,activity; movement; animal; behavior; neuron; time; behavioral; day; field; trial,Revealing neural correlates of behavior without behavioral measurements,2019-02-05,10.1101/540195,https://www.biorxiv.org/content/10.1101/540195v1.full.pdf
1085,1085,58.0,activity; movement; animal; behavior; neuron; time; behavioral; day; field; trial,"A stable, long-term cortical signature underlying consistent behavior",2018-10-18,10.1101/447441,https://www.biorxiv.org/content/10.1101/447441v3.full.pdf
1200,1200,58.0,activity; movement; animal; behavior; neuron; time; behavioral; day; field; trial,Predictive neural processing in adult zebrafish depends on shank3b,2019-02-11,10.1101/546457,https://www.biorxiv.org/content/10.1101/546457v1.full.pdf
1210,1210,58.0,activity; movement; animal; behavior; neuron; time; behavioral; day; field; trial,The McGill-Mouse-Marmoset Platform: A Standardized Approach for High-throughput Imaging of Neuronal Dynamics During Behavior,2020-02-07,10.1101/2020.02.06.937573,https://www.biorxiv.org/content/10.1101/2020.02.06.937573v1.full.pdf
1300,1300,58.0,activity; movement; animal; behavior; neuron; time; behavioral; day; field; trial,The place-cell representation of volumetric space in rats,2019-07-11,10.1101/698175,https://www.biorxiv.org/content/10.1101/698175v2.full.pdf
1350,1350,58.0,activity; movement; animal; behavior; neuron; time; behavioral; day; field; trial,Striatal activity reflects cortical activity patterns,2019-07-16,10.1101/703710,https://www.biorxiv.org/content/10.1101/703710v1.full.pdf
1357,1357,58.0,activity; movement; animal; behavior; neuron; time; behavioral; day; field; trial,NINscope: a versatile miniscope for multi-region circuit investigations,2019-06-30,10.1101/685909,https://www.biorxiv.org/content/10.1101/685909v2.full.pdf
1436,1436,58.0,activity; movement; animal; behavior; neuron; time; behavioral; day; field; trial,Skill-specific changes in cortical preparatory activity during motor learning,2020-01-31,10.1101/2020.01.30.919894,https://www.biorxiv.org/content/10.1101/2020.01.30.919894v1.full.pdf
1438,1438,58.0,activity; movement; animal; behavior; neuron; time; behavioral; day; field; trial,Dendritic calcium signals in rhesus macaque motor cortex drive an optical brain-computer interface,2019-09-24,10.1101/780486,https://www.biorxiv.org/content/10.1101/780486v2.full.pdf
1444,1444,58.0,activity; movement; animal; behavior; neuron; time; behavioral; day; field; trial,Amygdala neuronal ensembles dynamically encode behavioral states,2018-09-25,10.1101/425736,https://www.biorxiv.org/content/10.1101/425736v2.full.pdf
