,Document_Number,Dominant_Topic,Keywords,Title,Date,DOI,URL
2,2,21.0,provide; make; give; present; approach; base; require; result; problem; exist,information typology in coronavirus (covid-19) crisis; a commentary ,2020-03,,
7,7,21.0,provide; make; give; present; approach; base; require; result; problem; exist,frontiers in antiviral therapy and immunotherapy,2020-02,10.1002/cti2.1115,
74,74,21.0,provide; make; give; present; approach; base; require; result; problem; exist,serious games for serious crises: reflections from an infectious disease outbreak matrix game,2020-03,10.1186/s12992-020-00547-6,
89,89,21.0,provide; make; give; present; approach; base; require; result; problem; exist,reviewer response for version 2,2020-02,10.12688/f1000research.22211.1,
133,133,21.0,provide; make; give; present; approach; base; require; result; problem; exist,a novel approach of consultation on 2019 novel coronavirus (covid-19)-related psychological and mental problems: structured letter therapy,2020-02,10.30773/pi.2020.0047,
181,181,21.0,provide; make; give; present; approach; base; require; result; problem; exist,author response,2020-02,10.7554/eLife.55570,
583,583,21.0,provide; make; give; present; approach; base; require; result; problem; exist,Ten simple rules for structuring papers,2016-11-28,10.1101/088278,https://www.biorxiv.org/content/10.1101/088278v5.full.pdf
681,681,21.0,provide; make; give; present; approach; base; require; result; problem; exist,A statistical definition for reproducibility and replicability,2016-07-29,10.1101/066803,https://www.biorxiv.org/content/10.1101/066803v1.full.pdf
772,772,21.0,provide; make; give; present; approach; base; require; result; problem; exist,Extraordinary claims require extraordinary evidence in the case of asserted mtDNA biparental inheritance,2019-03-25,10.1101/585752,https://www.biorxiv.org/content/10.1101/585752v1.full.pdf
796,796,21.0,provide; make; give; present; approach; base; require; result; problem; exist,The Mastery Rubric for Bioinformatics: supporting design and evaluation of career-spanning education and training,2019-06-02,10.1101/655456,https://www.biorxiv.org/content/10.1101/655456v1.full.pdf
1319,1319,21.0,provide; make; give; present; approach; base; require; result; problem; exist,Evaluating the clinical validity of gene-disease associations: an evidence-based framework developed by the Clinical Genome Resource,2017-02-22,10.1101/111039,https://www.biorxiv.org/content/10.1101/111039v3.full.pdf
