,Document_Number,Dominant_Topic,Keywords,Title,Date,DOI,URL
568,568,27.0,selection; population; mutation; allele; evolution; frequency; fitness; genetic; site; adaptation,Genetic Adaptation in New York City Rats,2020-02-08,10.1101/2020.02.07.938969,https://www.biorxiv.org/content/10.1101/2020.02.07.938969v1.full.pdf
608,608,27.0,selection; population; mutation; allele; evolution; frequency; fitness; genetic; site; adaptation,High genetic diversity can contribute to extinction in small populations,2019-06-21,10.1101/678524,https://www.biorxiv.org/content/10.1101/678524v1.full.pdf
783,783,27.0,selection; population; mutation; allele; evolution; frequency; fitness; genetic; site; adaptation,Niche construction in evolutionary theory: the construction of an academic niche?,2017-02-19,10.1101/109793,https://www.biorxiv.org/content/10.1101/109793v1.full.pdf
808,808,27.0,selection; population; mutation; allele; evolution; frequency; fitness; genetic; site; adaptation,An approximate full-likelihood method for inferring selection and allele frequency trajectories from DNA sequence data,2019-03-28,10.1101/592675,https://www.biorxiv.org/content/10.1101/592675v3.full.pdf
932,932,27.0,selection; population; mutation; allele; evolution; frequency; fitness; genetic; site; adaptation,Exploiting selection at linked sites to infer the rate and strength of adaptation,2018-09-26,10.1101/427633,https://www.biorxiv.org/content/10.1101/427633v2.full.pdf
937,937,27.0,selection; population; mutation; allele; evolution; frequency; fitness; genetic; site; adaptation,Evolutionary dynamics in structured populations under strong population genetic forces,2019-03-16,10.1101/579854,https://www.biorxiv.org/content/10.1101/579854v1.full.pdf
1009,1009,27.0,selection; population; mutation; allele; evolution; frequency; fitness; genetic; site; adaptation,Estimation of allele-specific fitness effects across human protein-coding sequences and implications for disease,2018-10-13,10.1101/441337,https://www.biorxiv.org/content/10.1101/441337v1.full.pdf
1012,1012,27.0,selection; population; mutation; allele; evolution; frequency; fitness; genetic; site; adaptation,Tissue structure accelerates evolution: premalignant sweeps precede neutral expansion,2019-02-10,10.1101/542019,https://www.biorxiv.org/content/10.1101/542019v2.full.pdf
1041,1041,27.0,selection; population; mutation; allele; evolution; frequency; fitness; genetic; site; adaptation,Extensive impact of low-frequency variants on the phenotypic landscape at population-scale,2019-04-16,10.1101/609917,https://www.biorxiv.org/content/10.1101/609917v1.full.pdf
1058,1058,27.0,selection; population; mutation; allele; evolution; frequency; fitness; genetic; site; adaptation,Detecting polygenic adaptation in admixture graphs,2017-06-04,10.1101/146043,https://www.biorxiv.org/content/10.1101/146043v4.full.pdf
1059,1059,27.0,selection; population; mutation; allele; evolution; frequency; fitness; genetic; site; adaptation,A method for genome-wide genealogy estimation for thousands of samples,2019-02-14,10.1101/550558,https://www.biorxiv.org/content/10.1101/550558v1.full.pdf
1087,1087,27.0,selection; population; mutation; allele; evolution; frequency; fitness; genetic; site; adaptation,An olfactory receptor gene underlies reproductive isolation in perfume-collecting orchid bees,2019-02-01,10.1101/537423,https://www.biorxiv.org/content/10.1101/537423v1.full.pdf
1090,1090,27.0,selection; population; mutation; allele; evolution; frequency; fitness; genetic; site; adaptation,VolcanoFinder: genomic scans for adaptive introgression,2019-07-11,10.1101/697987,https://www.biorxiv.org/content/10.1101/697987v1.full.pdf
1097,1097,27.0,selection; population; mutation; allele; evolution; frequency; fitness; genetic; site; adaptation,Ohana: detecting selection in multiple populations by modelling ancestral admixture components,2019-02-14,10.1101/546408,https://www.biorxiv.org/content/10.1101/546408v1.full.pdf
1128,1128,27.0,selection; population; mutation; allele; evolution; frequency; fitness; genetic; site; adaptation,Speciation genes are more likely to have discordant gene trees,2018-01-08,10.1101/244822,https://www.biorxiv.org/content/10.1101/244822v1.full.pdf
1133,1133,27.0,selection; population; mutation; allele; evolution; frequency; fitness; genetic; site; adaptation,The Linked Selection Signature of Rapid Adaptation in Temporal Genomic Data,2019-02-24,10.1101/559419,https://www.biorxiv.org/content/10.1101/559419v2.full.pdf
1178,1178,27.0,selection; population; mutation; allele; evolution; frequency; fitness; genetic; site; adaptation,The distribution of fitness effects among synonymous mutations in a gene under selection,2019-02-18,10.1101/553610,https://www.biorxiv.org/content/10.1101/553610v2.full.pdf
1218,1218,27.0,selection; population; mutation; allele; evolution; frequency; fitness; genetic; site; adaptation,Evolutionary dynamics of bacteria in the gut microbiome within and across hosts,2017-10-30,10.1101/210955,https://www.biorxiv.org/content/10.1101/210955v3.full.pdf
1364,1364,27.0,selection; population; mutation; allele; evolution; frequency; fitness; genetic; site; adaptation,Global adaptation confounds the search for local adaptation,2019-08-21,10.1101/742247,https://www.biorxiv.org/content/10.1101/742247v1.full.pdf
1367,1367,27.0,selection; population; mutation; allele; evolution; frequency; fitness; genetic; site; adaptation,Assortative mating in hybrid zones is remarkably ineffective in promoting speciation,2019-05-16,10.1101/637678,https://www.biorxiv.org/content/10.1101/637678v2.full.pdf
1462,1462,27.0,selection; population; mutation; allele; evolution; frequency; fitness; genetic; site; adaptation,Allelic polymorphism shapes community function in evolving Pseudomonas aeruginosa populations,2019-05-21,10.1101/644724,https://www.biorxiv.org/content/10.1101/644724v7.full.pdf
1465,1465,27.0,selection; population; mutation; allele; evolution; frequency; fitness; genetic; site; adaptation,Inference of recombination maps from a single pair of genomes and its application to archaic samples,2018-10-24,10.1101/452268,https://www.biorxiv.org/content/10.1101/452268v2.full.pdf
1489,1489,27.0,selection; population; mutation; allele; evolution; frequency; fitness; genetic; site; adaptation,Identifying loci under positive selection in complex population histories,2018-10-25,10.1101/453092,https://www.biorxiv.org/content/10.1101/453092v2.full.pdf
1507,1507,27.0,selection; population; mutation; allele; evolution; frequency; fitness; genetic; site; adaptation,Stronger and higher proportion of beneficial amino acid changing mutations in humans compared to mice and flies,2018-09-26,10.1101/427583,https://www.biorxiv.org/content/10.1101/427583v1.full.pdf
1533,1533,27.0,selection; population; mutation; allele; evolution; frequency; fitness; genetic; site; adaptation,Higher fitness yeast genotypes are less robust to deleterious mutations,2019-06-20,10.1101/675314,https://www.biorxiv.org/content/10.1101/675314v1.full.pdf
1556,1556,27.0,selection; population; mutation; allele; evolution; frequency; fitness; genetic; site; adaptation,Fine-scale haplotype structure reveals strong signatures of positive selection in a recombining bacterial pathogen,2019-05-10,10.1101/634147,https://www.biorxiv.org/content/10.1101/634147v1.full.pdf
1602,1602,27.0,selection; population; mutation; allele; evolution; frequency; fitness; genetic; site; adaptation,Single Nucleotide Mapping of the Locally Accessible Trait Space in Yeast Reveals Pareto Fronts that Constrain Initial Adaptation,2019-03-30,10.1101/593947,https://www.biorxiv.org/content/10.1101/593947v1.full.pdf
1629,1629,27.0,selection; population; mutation; allele; evolution; frequency; fitness; genetic; site; adaptation,Is adaptation limited by mutation? A timescale-dependent effect of genetic diversity on the adaptive substitution rate in animals,2019-05-20,10.1101/643619,https://www.biorxiv.org/content/10.1101/643619v4.full.pdf
1664,1664,27.0,selection; population; mutation; allele; evolution; frequency; fitness; genetic; site; adaptation,Polygenic Adaptation: From sweeps to subtle frequency shifts,2018-10-23,10.1101/450759,https://www.biorxiv.org/content/10.1101/450759v2.full.pdf
