,Document_Number,Dominant_Topic,Keywords,Title,Date,DOI,URL
383,383,13.0,image; resolution; microscopy; cell; holder; high; review; single; fluorescence; tissue,7 Tesla MRI of the ex vivo human brain at 100 micron resolution,2019-05-31,10.1101/649822,https://www.biorxiv.org/content/10.1101/649822v2.full.pdf
389,389,13.0,image; resolution; microscopy; cell; holder; high; review; single; fluorescence; tissue,Deep learning reveals cancer metastasis and therapeutic antibody targeting in whole body,2019-02-05,10.1101/541862,https://www.biorxiv.org/content/10.1101/541862v1.full.pdf
396,396,13.0,image; resolution; microscopy; cell; holder; high; review; single; fluorescence; tissue,Octopi: Open configurable high-throughput imaging platform for infectious disease diagnosis in the field,2019-06-27,10.1101/684423,https://www.biorxiv.org/content/10.1101/684423v1.full.pdf
404,404,13.0,image; resolution; microscopy; cell; holder; high; review; single; fluorescence; tissue,Correlative three-dimensional super-resolution and block face electron microscopy of whole vitreously frozen cells,2019-09-18,10.1101/773986,https://www.biorxiv.org/content/10.1101/773986v1.full.pdf
405,405,13.0,image; resolution; microscopy; cell; holder; high; review; single; fluorescence; tissue,Cellular and Molecular Probing of Intact Transparent Human Organs,2019-05-21,10.1101/643908,https://www.biorxiv.org/content/10.1101/643908v1.full.pdf
407,407,13.0,image; resolution; microscopy; cell; holder; high; review; single; fluorescence; tissue,"Panoptic vDISCO imaging reveals neuronal connectivity, remote trauma effects and meningeal vessels in intact transparent mice",2018-07-23,10.1101/374785,https://www.biorxiv.org/content/10.1101/374785v1.full.pdf
418,418,13.0,image; resolution; microscopy; cell; holder; high; review; single; fluorescence; tissue,Content-Aware Image Restoration: Pushing the Limits of Fluorescence Microscopy,2017-12-19,10.1101/236463,https://www.biorxiv.org/content/10.1101/236463v5.full.pdf
427,427,13.0,image; resolution; microscopy; cell; holder; high; review; single; fluorescence; tissue,7 Tesla MRI of the ex vivo human brain at 100 micron resolution,2019-05-31,10.1101/649822,https://www.biorxiv.org/content/10.1101/649822v2.full.pdf
433,433,13.0,image; resolution; microscopy; cell; holder; high; review; single; fluorescence; tissue,Deep learning reveals cancer metastasis and therapeutic antibody targeting in whole body,2019-02-05,10.1101/541862,https://www.biorxiv.org/content/10.1101/541862v1.full.pdf
440,440,13.0,image; resolution; microscopy; cell; holder; high; review; single; fluorescence; tissue,Octopi: Open configurable high-throughput imaging platform for infectious disease diagnosis in the field,2019-06-27,10.1101/684423,https://www.biorxiv.org/content/10.1101/684423v1.full.pdf
448,448,13.0,image; resolution; microscopy; cell; holder; high; review; single; fluorescence; tissue,Correlative three-dimensional super-resolution and block face electron microscopy of whole vitreously frozen cells,2019-09-18,10.1101/773986,https://www.biorxiv.org/content/10.1101/773986v1.full.pdf
449,449,13.0,image; resolution; microscopy; cell; holder; high; review; single; fluorescence; tissue,Cellular and Molecular Probing of Intact Transparent Human Organs,2019-05-21,10.1101/643908,https://www.biorxiv.org/content/10.1101/643908v1.full.pdf
451,451,13.0,image; resolution; microscopy; cell; holder; high; review; single; fluorescence; tissue,"Panoptic vDISCO imaging reveals neuronal connectivity, remote trauma effects and meningeal vessels in intact transparent mice",2018-07-23,10.1101/374785,https://www.biorxiv.org/content/10.1101/374785v1.full.pdf
462,462,13.0,image; resolution; microscopy; cell; holder; high; review; single; fluorescence; tissue,Content-Aware Image Restoration: Pushing the Limits of Fluorescence Microscopy,2017-12-19,10.1101/236463,https://www.biorxiv.org/content/10.1101/236463v5.full.pdf
479,479,13.0,image; resolution; microscopy; cell; holder; high; review; single; fluorescence; tissue,Automated analysis of whole brain vasculature using machine learning,2019-04-18,10.1101/613257,https://www.biorxiv.org/content/10.1101/613257v1.full.pdf
536,536,13.0,image; resolution; microscopy; cell; holder; high; review; single; fluorescence; tissue,Subcellular localization of drug distribution by super-resolution ion beam imaging,2019-02-22,10.1101/557603,https://www.biorxiv.org/content/10.1101/557603v2.full.pdf
562,562,13.0,image; resolution; microscopy; cell; holder; high; review; single; fluorescence; tissue,NanoJ: a high-performance open-source super-resolution microscopy toolbox,2018-10-01,10.1101/432674,https://www.biorxiv.org/content/10.1101/432674v2.full.pdf
564,564,13.0,image; resolution; microscopy; cell; holder; high; review; single; fluorescence; tissue,Deep Learning-Based Point-Scanning Super-Resolution Imaging,2019-08-21,10.1101/740548,https://www.biorxiv.org/content/10.1101/740548v8.full.pdf
599,599,13.0,image; resolution; microscopy; cell; holder; high; review; single; fluorescence; tissue,Highly multiplexed in situ protein imaging with signal amplification by Immuno-SABER,2018-12-28,10.1101/507566,https://www.biorxiv.org/content/10.1101/507566v1.full.pdf
674,674,13.0,image; resolution; microscopy; cell; holder; high; review; single; fluorescence; tissue,Optical clearing of living brains with MAGICAL to extend in vivo imaging,2019-01-09,10.1101/507426,https://www.biorxiv.org/content/10.1101/507426v1.full.pdf
682,682,13.0,image; resolution; microscopy; cell; holder; high; review; single; fluorescence; tissue,Ultrastructure of the axonal periodic scaffold reveals a braid-like organization of actin rings,2019-05-13,10.1101/636217,https://www.biorxiv.org/content/10.1101/636217v3.full.pdf
695,695,13.0,image; resolution; microscopy; cell; holder; high; review; single; fluorescence; tissue,MINFLUX nanoscopy delivers multicolor nanometer 3D-resolution in (living) cells,2019-08-13,10.1101/734251,https://www.biorxiv.org/content/10.1101/734251v1.full.pdf
711,711,13.0,image; resolution; microscopy; cell; holder; high; review; single; fluorescence; tissue,How neurons move during action potentials,2019-09-11,10.1101/765768,https://www.biorxiv.org/content/10.1101/765768v1.full.pdf
735,735,13.0,image; resolution; microscopy; cell; holder; high; review; single; fluorescence; tissue,Microfluidic protein isolation and sample preparation for high resolution cryo-EM,2019-02-21,10.1101/556068,https://www.biorxiv.org/content/10.1101/556068v1.full.pdf
786,786,13.0,image; resolution; microscopy; cell; holder; high; review; single; fluorescence; tissue,"About samples, giving examples: Optimized Single Molecule Localization Microscopy",2019-03-05,10.1101/568295,https://www.biorxiv.org/content/10.1101/568295v3.full.pdf
817,817,13.0,image; resolution; microscopy; cell; holder; high; review; single; fluorescence; tissue,Ion beam subcellular tomography,2019-02-22,10.1101/557728,https://www.biorxiv.org/content/10.1101/557728v1.full.pdf
836,836,13.0,image; resolution; microscopy; cell; holder; high; review; single; fluorescence; tissue,Fix your membrane receptor imaging: Actin cytoskeleton and CD4 membrane organization disruption by chemical fixation,2018-10-23,10.1101/450635,https://www.biorxiv.org/content/10.1101/450635v1.full.pdf
909,909,13.0,image; resolution; microscopy; cell; holder; high; review; single; fluorescence; tissue,Live-cell STED microscopy of mitochondrial cristae,2019-05-17,10.1101/640920,https://www.biorxiv.org/content/10.1101/640920v1.full.pdf
911,911,13.0,image; resolution; microscopy; cell; holder; high; review; single; fluorescence; tissue,In situ and high-resolution Cryo-EM structure of the Type VI secretion membrane complex,2018-10-13,10.1101/441683,https://www.biorxiv.org/content/10.1101/441683v1.full.pdf
982,982,13.0,image; resolution; microscopy; cell; holder; high; review; single; fluorescence; tissue,"The Flexiscope: a Low Cost, Flexible, Convertible, and Modular Microscope with Automated Scanning and Micromanipulation.",2018-10-13,10.1101/442210,https://www.biorxiv.org/content/10.1101/442210v2.full.pdf
989,989,13.0,image; resolution; microscopy; cell; holder; high; review; single; fluorescence; tissue,Localization microscopy at doubled precision with patterned illumination,2019-02-20,10.1101/554337,https://www.biorxiv.org/content/10.1101/554337v1.full.pdf
994,994,13.0,image; resolution; microscopy; cell; holder; high; review; single; fluorescence; tissue,Universal Light-Sheet Generation with Field Synthesis,2018-09-26,10.1101/427468,https://www.biorxiv.org/content/10.1101/427468v1.full.pdf
1037,1037,13.0,image; resolution; microscopy; cell; holder; high; review; single; fluorescence; tissue,RELION-3: new tools for automated high-resolution cryo-EM structure determination,2018-09-19,10.1101/421123,https://www.biorxiv.org/content/10.1101/421123v1.full.pdf
1205,1205,13.0,image; resolution; microscopy; cell; holder; high; review; single; fluorescence; tissue,Nuclear pores as versatile reference standards for quantitative superresolution microscopy,2019-03-20,10.1101/582668,https://www.biorxiv.org/content/10.1101/582668v1.full.pdf
1209,1209,13.0,image; resolution; microscopy; cell; holder; high; review; single; fluorescence; tissue,Structure of a cytochrome-based bacterial nanowire,2018-12-10,10.1101/492645,https://www.biorxiv.org/content/10.1101/492645v1.full.pdf
1252,1252,13.0,image; resolution; microscopy; cell; holder; high; review; single; fluorescence; tissue,Highly Multiplexed Spatial Mapping of Microbial Communities,2019-06-21,10.1101/678672,https://www.biorxiv.org/content/10.1101/678672v1.full.pdf
1266,1266,13.0,image; resolution; microscopy; cell; holder; high; review; single; fluorescence; tissue,"Light-sheet microscopy with isotropic, sub-micron resolution and solvent-independent large-scale imaging",2019-04-11,10.1101/605493,https://www.biorxiv.org/content/10.1101/605493v1.full.pdf
1267,1267,13.0,image; resolution; microscopy; cell; holder; high; review; single; fluorescence; tissue,The mesoSPIM initiative: open-source light-sheet mesoscopes for imaging in cleared tissue,2019-03-18,10.1101/577122,https://www.biorxiv.org/content/10.1101/577122v1.full.pdf
1268,1268,13.0,image; resolution; microscopy; cell; holder; high; review; single; fluorescence; tissue,Multi-immersion open-top light-sheet microscope for high-throughput imaging of cleared tissues,2019-02-13,10.1101/548107,https://www.biorxiv.org/content/10.1101/548107v1.full.pdf
1297,1297,13.0,image; resolution; microscopy; cell; holder; high; review; single; fluorescence; tissue,High-resolution structure determination of sub-100 kilodalton complexes using conventional cryo-EM,2018-12-07,10.1101/489898,https://www.biorxiv.org/content/10.1101/489898v1.full.pdf
1329,1329,13.0,image; resolution; microscopy; cell; holder; high; review; single; fluorescence; tissue,Nanoscale subcellular architecture revealed by multicolor 3D salvaged fluorescence imaging,2019-04-18,10.1101/613174,https://www.biorxiv.org/content/10.1101/613174v1.full.pdf
1437,1437,13.0,image; resolution; microscopy; cell; holder; high; review; single; fluorescence; tissue,High accuracy measurements of nanometer-scale distances between fluorophores at the single-molecule level,2017-12-15,10.1101/234740,https://www.biorxiv.org/content/10.1101/234740v2.full.pdf
1471,1471,13.0,image; resolution; microscopy; cell; holder; high; review; single; fluorescence; tissue,Direct visualization of single nuclear pore complex proteins using genetically-encoded probes for DNA-PAINT,2019-03-19,10.1101/579961,https://www.biorxiv.org/content/10.1101/579961v2.full.pdf
1482,1482,13.0,image; resolution; microscopy; cell; holder; high; review; single; fluorescence; tissue,Object Detection Networks and Augmented Reality for Cellular Detection in Fluorescence Microscopy Acquisition and Analysis.,2019-02-08,10.1101/544833,https://www.biorxiv.org/content/10.1101/544833v2.full.pdf
1505,1505,13.0,image; resolution; microscopy; cell; holder; high; review; single; fluorescence; tissue,Multiplexed electron microscopy by fluorescent barcoding allows screening for ultrastructural phenotype,2019-01-09,10.1101/515841,https://www.biorxiv.org/content/10.1101/515841v1.full.pdf
1529,1529,13.0,image; resolution; microscopy; cell; holder; high; review; single; fluorescence; tissue,Direct Imaging of Liquid Domains in Membranes by Cryo Electron Tomography,2020-02-05,10.1101/2020.02.05.935684,https://www.biorxiv.org/content/10.1101/2020.02.05.935684v1.full.pdf
1598,1598,13.0,image; resolution; microscopy; cell; holder; high; review; single; fluorescence; tissue,Direct label-free imaging of nanodomains in biomimetic and biological membranes by cryogenic electron microscopy,2020-02-05,10.1101/2020.02.05.935551,https://www.biorxiv.org/content/10.1101/2020.02.05.935551v1.full.pdf
1626,1626,13.0,image; resolution; microscopy; cell; holder; high; review; single; fluorescence; tissue,Single particle cryo-EM reconstruction of 52 kDa streptavidin at 3.2 Angstrom resolution,2018-11-13,10.1101/457861,https://www.biorxiv.org/content/10.1101/457861v1.full.pdf
1630,1630,13.0,image; resolution; microscopy; cell; holder; high; review; single; fluorescence; tissue,MemBright: a Family of Fluorescent Membrane Probes for Advanced Cellular Imaging and Neuroscience,2018-07-30,10.1101/380451,https://www.biorxiv.org/content/10.1101/380451v1.full.pdf
