,Document_Number,Dominant_Topic,Keywords,Title,Date,DOI,URL
419,419,14.0,method; datum; single; cell; dataset; cluster; sample; analysis; set; count,Modular and efficient pre-processing of single-cell RNA-seq,2019-06-17,10.1101/673285,https://www.biorxiv.org/content/10.1101/673285v2.full.pdf
463,463,14.0,method; datum; single; cell; dataset; cluster; sample; analysis; set; count,Modular and efficient pre-processing of single-cell RNA-seq,2019-06-17,10.1101/673285,https://www.biorxiv.org/content/10.1101/673285v2.full.pdf
480,480,14.0,method; datum; single; cell; dataset; cluster; sample; analysis; set; count,A practical guide to methods controlling false discoveries in computational biology,2018-10-31,10.1101/458786,https://www.biorxiv.org/content/10.1101/458786v1.full.pdf
487,487,14.0,method; datum; single; cell; dataset; cluster; sample; analysis; set; count,Feature Selection and Dimension Reduction for Single Cell RNA-Seq based on a Multinomial Model,2019-03-11,10.1101/574574,https://www.biorxiv.org/content/10.1101/574574v1.full.pdf
507,507,14.0,method; datum; single; cell; dataset; cluster; sample; analysis; set; count,Assessment of computational methods for the analysis of single-cell ATAC-seq data,2019-08-18,10.1101/739011,https://www.biorxiv.org/content/10.1101/739011v1.full.pdf
529,529,14.0,method; datum; single; cell; dataset; cluster; sample; analysis; set; count,Single-cell mass-spectrometry quantifies the emergence of macrophage heterogeneity,2019-06-09,10.1101/665307,https://www.biorxiv.org/content/10.1101/665307v3.full.pdf
607,607,14.0,method; datum; single; cell; dataset; cluster; sample; analysis; set; count,A Systematic Evaluation of Single Cell RNA-Seq Analysis Pipelines,2019-03-19,10.1101/583013,https://www.biorxiv.org/content/10.1101/583013v3.full.pdf
619,619,14.0,method; datum; single; cell; dataset; cluster; sample; analysis; set; count,Normalization and variance stabilization of single-cell RNA-seq data using regularized negative binomial regression,2019-03-14,10.1101/576827,https://www.biorxiv.org/content/10.1101/576827v2.full.pdf
683,683,14.0,method; datum; single; cell; dataset; cluster; sample; analysis; set; count,Single cell RNA-seq denoising using a deep count autoencoder,2018-04-13,10.1101/300681,https://www.biorxiv.org/content/10.1101/300681v1.full.pdf
687,687,14.0,method; datum; single; cell; dataset; cluster; sample; analysis; set; count,Quantifying the tradeoff between sequencing depth and cell number in single-cell RNA-seq,2019-09-09,10.1101/762773,https://www.biorxiv.org/content/10.1101/762773v1.full.pdf
706,706,14.0,method; datum; single; cell; dataset; cluster; sample; analysis; set; count,Droplet scRNA-seq is not zero-inflated,2019-03-19,10.1101/582064,https://www.biorxiv.org/content/10.1101/582064v1.full.pdf
722,722,14.0,method; datum; single; cell; dataset; cluster; sample; analysis; set; count,Systematic comparative analysis of single cell RNA-sequencing methods,2019-05-09,10.1101/632216,https://www.biorxiv.org/content/10.1101/632216v2.full.pdf
758,758,14.0,method; datum; single; cell; dataset; cluster; sample; analysis; set; count,Orchestrating Single-Cell Analysis with Bioconductor,2019-03-27,10.1101/590562,https://www.biorxiv.org/content/10.1101/590562v1.full.pdf
760,760,14.0,method; datum; single; cell; dataset; cluster; sample; analysis; set; count,Exploring dimension-reduced embeddings with Sleepwalk,2019-04-12,10.1101/603589,https://www.biorxiv.org/content/10.1101/603589v1.full.pdf
787,787,14.0,method; datum; single; cell; dataset; cluster; sample; analysis; set; count,"Fast, sensitive, and accurate integration of single cell data with Harmony",2018-11-04,10.1101/461954,https://www.biorxiv.org/content/10.1101/461954v2.full.pdf
801,801,14.0,method; datum; single; cell; dataset; cluster; sample; analysis; set; count,Evaluating the evidence for biotypes of depression: attempted replication of Drysdale et.al. 2017,2018-09-14,10.1101/416321,https://www.biorxiv.org/content/10.1101/416321v1.full.pdf
822,822,14.0,method; datum; single; cell; dataset; cluster; sample; analysis; set; count,Naught all zeros in sequence count data are the same,2018-11-26,10.1101/477794,https://www.biorxiv.org/content/10.1101/477794v2.full.pdf
832,832,14.0,method; datum; single; cell; dataset; cluster; sample; analysis; set; count,Valid post-clustering differential analysis for single-cell RNA-Seq,2018-11-05,10.1101/463265,https://www.biorxiv.org/content/10.1101/463265v3.full.pdf
855,855,14.0,method; datum; single; cell; dataset; cluster; sample; analysis; set; count,Data Denoising with transfer learning in single-cell transcriptomics,2018-10-31,10.1101/457879,https://www.biorxiv.org/content/10.1101/457879v3.full.pdf
866,866,14.0,method; datum; single; cell; dataset; cluster; sample; analysis; set; count,On the discovery of population-specific state transitions from multi-sample multi-condition single-cell RNA sequencing data,2019-07-26,10.1101/713412,https://www.biorxiv.org/content/10.1101/713412v1.full.pdf
867,867,14.0,method; datum; single; cell; dataset; cluster; sample; analysis; set; count,The art of using t-SNE for single-cell transcriptomics,2018-10-25,10.1101/453449,https://www.biorxiv.org/content/10.1101/453449v2.full.pdf
910,910,14.0,method; datum; single; cell; dataset; cluster; sample; analysis; set; count,Comprehensive integration of single cell data,2018-11-02,10.1101/460147,https://www.biorxiv.org/content/10.1101/460147v1.full.pdf
919,919,14.0,method; datum; single; cell; dataset; cluster; sample; analysis; set; count,Determining sufficient sequencing depth in RNA-Seq differential expression studies,2019-05-13,10.1101/635623,https://www.biorxiv.org/content/10.1101/635623v1.full.pdf
949,949,14.0,method; datum; single; cell; dataset; cluster; sample; analysis; set; count,Robustness and applicability of functional genomics tools on scRNA-seq data,2019-09-01,10.1101/753319,https://www.biorxiv.org/content/10.1101/753319v1.full.pdf
992,992,14.0,method; datum; single; cell; dataset; cluster; sample; analysis; set; count,Performance Assessment and Selection of Normalization Procedures for Single-Cell RNA-seq,2017-12-16,10.1101/235382,https://www.biorxiv.org/content/10.1101/235382v2.full.pdf
1004,1004,14.0,method; datum; single; cell; dataset; cluster; sample; analysis; set; count,UMAP does not preserve global structure any better than t-SNE when using the same initialization,2019-12-19,10.1101/2019.12.19.877522,https://www.biorxiv.org/content/10.1101/2019.12.19.877522v1.full.pdf
1015,1015,14.0,method; datum; single; cell; dataset; cluster; sample; analysis; set; count,Improving the value of public RNA-seq expression data by phenotype prediction,2017-06-03,10.1101/145656,https://www.biorxiv.org/content/10.1101/145656v1.full.pdf
1016,1016,14.0,method; datum; single; cell; dataset; cluster; sample; analysis; set; count,Benchmarking principal component analysis for large-scale single-cell RNA-sequencing,2019-05-20,10.1101/642595,https://www.biorxiv.org/content/10.1101/642595v2.full.pdf
1023,1023,14.0,method; datum; single; cell; dataset; cluster; sample; analysis; set; count,Multi-Omics factor analysis - a framework for unsupervised integration of multi-omic data sets,2017-11-10,10.1101/217554,https://www.biorxiv.org/content/10.1101/217554v2.full.pdf
1165,1165,14.0,method; datum; single; cell; dataset; cluster; sample; analysis; set; count,Automated optimized parameters for T-distributed stochastic neighbor embedding improve visualization and allow analysis of large datasets,2018-10-24,10.1101/451690,https://www.biorxiv.org/content/10.1101/451690v3.full.pdf
1232,1232,14.0,method; datum; single; cell; dataset; cluster; sample; analysis; set; count,scRNA-seq mixology: towards better benchmarking of single cell RNA-seq analysis methods,2018-10-03,10.1101/433102,https://www.biorxiv.org/content/10.1101/433102v3.full.pdf
1236,1236,14.0,method; datum; single; cell; dataset; cluster; sample; analysis; set; count,Parameter tuning is a key part of dimensionality reduction via deep variational autoencoders for single cell RNA transcriptomics,2018-08-05,10.1101/385534,https://www.biorxiv.org/content/10.1101/385534v4.full.pdf
1251,1251,14.0,method; datum; single; cell; dataset; cluster; sample; analysis; set; count,Towards a gold standard for benchmarking gene set enrichment analysis,2019-06-19,10.1101/674267,https://www.biorxiv.org/content/10.1101/674267v1.full.pdf
1331,1331,14.0,method; datum; single; cell; dataset; cluster; sample; analysis; set; count,Another look at microbe–metabolite interactions: how scale invariant correlations can outperform a neural network,2019-11-29,10.1101/847475,https://www.biorxiv.org/content/10.1101/847475v1.full.pdf
1378,1378,14.0,method; datum; single; cell; dataset; cluster; sample; analysis; set; count,epiScanpy: integrated single-cell epigenomic analysis,2019-05-24,10.1101/648097,https://www.biorxiv.org/content/10.1101/648097v1.full.pdf
1384,1384,14.0,method; datum; single; cell; dataset; cluster; sample; analysis; set; count,Molecular Cross-Validation for Single-Cell RNA-seq,2019-09-30,10.1101/786269,https://www.biorxiv.org/content/10.1101/786269v1.full.pdf
1475,1475,14.0,method; datum; single; cell; dataset; cluster; sample; analysis; set; count,Probabilistic gene expression signatures identify cell-types from single cell RNA-seq data,2020-01-06,10.1101/2020.01.05.895441,https://www.biorxiv.org/content/10.1101/2020.01.05.895441v2.full.pdf
1519,1519,14.0,method; datum; single; cell; dataset; cluster; sample; analysis; set; count,Compositional Data Analysis is necessary for simulating and analyzing RNA-Seq data,2019-03-02,10.1101/564955,https://www.biorxiv.org/content/10.1101/564955v1.full.pdf
1552,1552,14.0,method; datum; single; cell; dataset; cluster; sample; analysis; set; count,A Systematic Evaluation of Single-cell RNA-sequencing Imputation Methods,2020-01-30,10.1101/2020.01.29.925974,https://www.biorxiv.org/content/10.1101/2020.01.29.925974v1.full.pdf
1617,1617,14.0,method; datum; single; cell; dataset; cluster; sample; analysis; set; count,Uncertainty in RNA-seq gene expression data,2018-10-17,10.1101/445601,https://www.biorxiv.org/content/10.1101/445601v2.full.pdf
1638,1638,14.0,method; datum; single; cell; dataset; cluster; sample; analysis; set; count,Comparative analysis of sequencing technologies platforms for single-cell transcriptomics,2018-11-05,10.1101/463117,https://www.biorxiv.org/content/10.1101/463117v1.full.pdf
